[
    {
        "name": "red",
        "code": "#ff0000",
        "shades": [
            "#b22222",
            "#8b0000"
        ]
    },
    {
        "name": "blue",
        "code": "#0000ff"
    },
    {
        "name": "yellow",
        "code": "#ffff00"
    }
]